<?xml version="1.0" encoding="UTF-8"?>
<svg width="21px" height="22px" viewBox="0 0 21 22" version="1.1" xmlns="http://www.w3.org/2000/svg" xmlns:xlink="http://www.w3.org/1999/xlink">
    <!-- Generator: Sketch 51.2 (57519) - http://www.bohemiancoding.com/sketch -->
    <title>Glass</title>
    <desc>Created with Sketch.</desc>
    <defs></defs>
    <g id="Page-1" stroke="none" stroke-width="1" fill="none" fill-rule="evenodd">
        <g id="Glass" fill="#BD3131" fill-rule="nonzero">
            <path d="M20.1,0.9 C20,0.8 19.8,0.7 19.7,0.7 L0.7,0.7 C0.5,0.7 0.4,0.8 0.3,0.9 C0.2,1 0.1,1.2 0.1,1.4 L1.7,19.3 C1.8,20.3 2.6,21.1 3.7,21.1 L16.8,21.1 C17.8,21.1 18.7,20.3 18.8,19.3 L20.4,1.4 C20.3,1.2 20.2,1 20.1,0.9 Z M2.1,10.2 L3.1,10.2 L3.1,12.4 C3.1,13.5 4,14.4 5.1,14.4 L8.9,14.4 C9.9,14.4 10.7,13.8 10.9,12.9 L11.6,13.2 C11.8,13.3 12.1,13.3 12.3,13.3 C12.6,13.3 12.9,13.2 13.2,13.1 C13.7,12.9 14.1,12.5 14.3,11.9 L14.9,10.1 L16,10.1 L15.8,13.1 C15.8,13.4 16,13.7 16.3,13.7 C16.6,13.7 16.9,13.5 16.9,13.2 L17.2,10 L18.4,10 L18,15.1 L2.6,15.1 L2.1,10.2 Z M14.4,8 L14,9 L10.9,9 L10.9,8.6 C10.9,7.5 10.1,6.6 9,6.6 L9.2,6.1 C9.3,5.9 9.4,5.7 9.6,5.6 C9.8,5.5 10,5.5 10.2,5.6 L13.8,6.9 C14,7 14.2,7.1 14.3,7.3 C14.4,7.5 14.4,7.7 14.4,8 Z M10.9,10.2 L13.5,10.2 L13,11.6 C12.9,11.8 12.8,12 12.6,12.1 C12.4,12.2 12.2,12.2 12,12.1 L11,11.7 L10.9,10.2 Z M8.9,7.8 C9.4,7.8 9.7,8.2 9.7,8.6 L9.7,9 L4.2,9 L4.2,8.6 C4.2,8.1 4.6,7.8 5,7.8 L8.9,7.8 Z M9.8,10.2 L9.8,12.4 C9.8,12.9 9.4,13.2 9,13.2 L5.1,13.2 C4.6,13.2 4.3,12.8 4.3,12.4 L4.3,10.2 L9.8,10.2 Z M19,1.9 L18.4,9 L17.1,9 L17.5,4.6 C17.5,4.3 17.3,4 17,4 C16.7,4 16.4,4.2 16.4,4.5 L16,9 L15.3,9 L15.5,8.4 C15.7,7.9 15.7,7.3 15.4,6.8 C15.2,6.3 14.8,5.9 14.2,5.7 L10.6,4.4 C10.1,4.2 9.5,4.2 9,4.5 C8.6,4.8 8.2,5.2 8.1,5.7 L7.7,6.5 L5.1,6.5 C4,6.5 3.1,7.4 3.1,8.5 L3.1,8.9 L2,8.9 L1.4,1.9 L19,1.9 Z M16.7,19.9 L3.7,19.9 C3.3,19.9 3,19.6 2.9,19.2 L2.7,16.5 L17.8,16.5 L17.6,19.2 C17.5,19.6 17.1,19.9 16.7,19.9 Z" id="Shape"></path>
        </g>
    </g>
</svg>